{
  "name": "MobSF",
  "description": "Perform pen-testing, malware analysis and security assessment for mobile applications with [Mobile Security Framework](https://github.com/MobSF/Mobile-Security-Framework-MobSF) (MobSF)",
  "template_path": "templates/gitlab-ci-mobsf.yml",
  "kind": "analyse",
  "prefix": "mobsf",
  "is_component": true,
  "variables": [
    {
      "name": "MOBSF_CLIENT_IMAGE",
      "description": "The Docker image used to send requests to the MobSF server",
      "default": "registry.hub.docker.com/badouralix/curl-jq"
    },
    {
      "name": "MOBSF_SERVER_URL",
      "description": "URL of MobSF server",
      "mandatory": false
    },
    {
      "name": "MOBSF_API_KEY",
      "description": "API key of the MobSF server",
      "secret": true
    },
    {
      "name": "MOBSF_APP_FILE",
      "description": "Application package file (APK or IPA)",
      "mandatory": true
    }
  ]
}
